<?xml version="1.0" encoding="UTF-8"?>
<!DOCTYPE svg PUBLIC '-//W3C//DTD SVG 1.0//EN'
          'http://www.w3.org/TR/2001/REC-SVG-20010904/DTD/svg10.dtd'>
<svg fill-opacity="0" xmlns:xlink="http://www.w3.org/1999/xlink" color-rendering="auto" color-interpolation="auto" stroke="rgb(0,0,0)" text-rendering="auto" stroke-linecap="square" width="926" stroke-miterlimit="10" stroke-opacity="0" shape-rendering="auto" fill="rgb(0,0,0)" stroke-dasharray="none" font-weight="normal" stroke-width="1" height="836" xmlns="http://www.w3.org/2000/svg" font-family="&apos;Dialog&apos;" font-style="normal" stroke-linejoin="miter" font-size="12" stroke-dashoffset="0" image-rendering="auto"
><!--Generated by the Batik Graphics2D SVG Generator--><defs id="genericDefs"
  /><g
  ><defs id="defs1"
    ><clipPath clipPathUnits="userSpaceOnUse" id="clipPath1"
      ><path d="M-7 -7 L31 -7 L31 31 L-7 31 L-7 -7 Z"
      /></clipPath
      ><clipPath clipPathUnits="userSpaceOnUse" id="clipPath2"
      ><path d="M-7 -7 L141 -7 L141 51 L-7 51 L-7 -7 Z"
      /></clipPath
      ><clipPath clipPathUnits="userSpaceOnUse" id="clipPath3"
      ><path d="M-7 -7 L181 -7 L181 51 L-7 51 L-7 -7 Z"
      /></clipPath
      ><clipPath clipPathUnits="userSpaceOnUse" id="clipPath4"
      ><path d="M-7 -7 L211 -7 L211 51 L-7 51 L-7 -7 Z"
      /></clipPath
      ><clipPath clipPathUnits="userSpaceOnUse" id="clipPath5"
      ><path d="M-7 -7 L51 -7 L51 31 L-7 31 L-7 -7 Z"
      /></clipPath
      ><clipPath clipPathUnits="userSpaceOnUse" id="clipPath6"
      ><path d="M-7 -7 L131 -7 L131 81 L-7 81 L-7 -7 Z"
      /></clipPath
      ><clipPath clipPathUnits="userSpaceOnUse" id="clipPath7"
      ><path d="M-7 -7 L151 -7 L151 51 L-7 51 L-7 -7 Z"
      /></clipPath
      ><clipPath clipPathUnits="userSpaceOnUse" id="clipPath8"
      ><path d="M-130 -28 L260 -28 L260 56 L-130 56 L-130 -28 Z"
      /></clipPath
      ><clipPath clipPathUnits="userSpaceOnUse" id="clipPath9"
      ><path d="M-140 -14 L280 -14 L280 28 L-140 28 L-140 -14 Z"
      /></clipPath
      ><clipPath clipPathUnits="userSpaceOnUse" id="clipPath10"
      ><path d="M-120 -56 L240 -56 L240 112 L-120 112 L-120 -56 Z"
      /></clipPath
      ><clipPath clipPathUnits="userSpaceOnUse" id="clipPath11"
      ><path d="M-170 -14 L340 -14 L340 28 L-170 28 L-170 -14 Z"
      /></clipPath
      ><clipPath clipPathUnits="userSpaceOnUse" id="clipPath12"
      ><path d="M-170 -28 L340 -28 L340 56 L-170 56 L-170 -28 Z"
      /></clipPath
      ><clipPath clipPathUnits="userSpaceOnUse" id="clipPath13"
      ><path d="M-200 -28 L400 -28 L400 56 L-200 56 L-200 -28 Z"
      /></clipPath
      ><clipPath clipPathUnits="userSpaceOnUse" id="clipPath14"
      ><path d="M-130 -14 L260 -14 L260 28 L-130 28 L-130 -14 Z"
      /></clipPath
      ><clipPath clipPathUnits="userSpaceOnUse" id="clipPath15"
      ><path d="M0 0 L104 0 L104 145 L0 145 L0 0 Z"
      /></clipPath
      ><clipPath clipPathUnits="userSpaceOnUse" id="clipPath16"
      ><path d="M0 0 L104 0 L104 143 L0 143 L0 0 Z"
      /></clipPath
      ><clipPath clipPathUnits="userSpaceOnUse" id="clipPath17"
      ><path d="M0 0 L104 0 L104 155 L0 155 L0 0 Z"
      /></clipPath
      ><clipPath clipPathUnits="userSpaceOnUse" id="clipPath18"
      ><path d="M0 0 L235 0 L235 104 L0 104 L0 0 Z"
      /></clipPath
      ><clipPath clipPathUnits="userSpaceOnUse" id="clipPath19"
      ><path d="M0 0 L464 0 L464 473 L0 473 L0 0 Z"
      /></clipPath
      ><clipPath clipPathUnits="userSpaceOnUse" id="clipPath20"
      ><path d="M0 0 L264 0 L264 154 L0 154 L0 0 Z"
      /></clipPath
      ><clipPath clipPathUnits="userSpaceOnUse" id="clipPath21"
      ><path d="M0 0 L373 0 L373 373 L0 373 L0 0 Z"
      /></clipPath
      ><clipPath clipPathUnits="userSpaceOnUse" id="clipPath22"
      ><path d="M0 0 L104 0 L104 135 L0 135 L0 0 Z"
      /></clipPath
      ><clipPath clipPathUnits="userSpaceOnUse" id="clipPath23"
      ><path d="M0 0 L176 0 L176 284 L0 284 L0 0 Z"
      /></clipPath
      ><clipPath clipPathUnits="userSpaceOnUse" id="clipPath24"
      ><path d="M0 0 L184 0 L184 104 L0 104 L0 0 Z"
      /></clipPath
      ><clipPath clipPathUnits="userSpaceOnUse" id="clipPath25"
      ><path d="M0 0 L215 0 L215 104 L0 104 L0 0 Z"
      /></clipPath
      ><clipPath clipPathUnits="userSpaceOnUse" id="clipPath26"
      ><path d="M0 0 L104 0 L104 133 L0 133 L0 0 Z"
      /></clipPath
      ><clipPath clipPathUnits="userSpaceOnUse" id="clipPath27"
      ><path d="M0 0 L254 0 L254 160 L0 160 L0 0 Z"
      /></clipPath
      ><clipPath clipPathUnits="userSpaceOnUse" id="clipPath28"
      ><path d="M0 0 L263 0 L263 160 L0 160 L0 0 Z"
      /></clipPath
      ><clipPath clipPathUnits="userSpaceOnUse" id="clipPath29"
      ><path d="M0 0 L255 0 L255 284 L0 284 L0 0 Z"
      /></clipPath
      ><clipPath clipPathUnits="userSpaceOnUse" id="clipPath30"
      ><path d="M0 0 L265 0 L265 154 L0 154 L0 0 Z"
      /></clipPath
      ><clipPath clipPathUnits="userSpaceOnUse" id="clipPath31"
      ><path d="M-83 -14 L166 -14 L166 28 L-83 28 L-83 -14 Z"
      /></clipPath
      ><clipPath clipPathUnits="userSpaceOnUse" id="clipPath32"
      ><path d="M-75 -14 L150 -14 L150 28 L-75 28 L-75 -14 Z"
      /></clipPath
      ><clipPath clipPathUnits="userSpaceOnUse" id="clipPath33"
      ><path d="M-82 -14 L164 -14 L164 28 L-82 28 L-82 -14 Z"
      /></clipPath
      ><clipPath clipPathUnits="userSpaceOnUse" id="clipPath34"
      ><path d="M-136 -14 L272 -14 L272 28 L-136 28 L-136 -14 Z"
      /></clipPath
      ><clipPath clipPathUnits="userSpaceOnUse" id="clipPath35"
      ><path d="M-38 -14 L76 -14 L76 28 L-38 28 L-38 -14 Z"
      /></clipPath
      ><clipPath clipPathUnits="userSpaceOnUse" id="clipPath36"
      ><path d="M-43 -14 L86 -14 L86 28 L-43 28 L-43 -14 Z"
      /></clipPath
      ><clipPath clipPathUnits="userSpaceOnUse" id="clipPath37"
      ><path d="M-159 -14 L318 -14 L318 28 L-159 28 L-159 -14 Z"
      /></clipPath
      ><clipPath clipPathUnits="userSpaceOnUse" id="clipPath38"
      ><path d="M-150 -14 L300 -14 L300 28 L-150 28 L-150 -14 Z"
      /></clipPath
      ><clipPath clipPathUnits="userSpaceOnUse" id="clipPath39"
      ><path d="M-92 -14 L184 -14 L184 28 L-92 28 L-92 -14 Z"
      /></clipPath
    ></defs
    ><g fill="white" text-rendering="geometricPrecision" fill-opacity="1" stroke-opacity="1" stroke="white"
    ><rect x="0" width="926" height="836" y="0" stroke="none"
    /></g
    ><g font-size="11" transform="translate(392,2)" fill-opacity="1" fill="black" text-rendering="geometricPrecision" font-family="sans-serif" stroke="black" stroke-opacity="1"
    ><circle r="9.5" clip-path="url(#clipPath1)" cx="9.5" cy="9.5" stroke="none"
    /></g
    ><g font-size="11" transform="translate(332,62)" fill-opacity="1" fill="rgb(122,207,245)" text-rendering="geometricPrecision" font-family="sans-serif" stroke="rgb(122,207,245)" stroke-opacity="1"
    ><rect x="0" y="0" clip-path="url(#clipPath2)" width="130" rx="10" ry="10" height="40" stroke="none"
    /></g
    ><g font-size="11" stroke-linecap="butt" transform="translate(332,62)" fill-opacity="1" fill="black" text-rendering="geometricPrecision" font-family="sans-serif" stroke-linejoin="round" stroke="black" stroke-opacity="1" stroke-miterlimit="0"
    ><rect x="0" y="0" clip-path="url(#clipPath2)" fill="none" width="130" rx="10" ry="10" height="40"
    /></g
    ><g font-size="11" transform="translate(332,222)" fill-opacity="1" fill="rgb(122,207,245)" text-rendering="geometricPrecision" font-family="sans-serif" stroke="rgb(122,207,245)" stroke-opacity="1"
    ><rect x="0" y="0" clip-path="url(#clipPath2)" width="130" rx="10" ry="10" height="40" stroke="none"
    /></g
    ><g font-size="11" stroke-linecap="butt" transform="translate(332,222)" fill-opacity="1" fill="black" text-rendering="geometricPrecision" font-family="sans-serif" stroke-linejoin="round" stroke="black" stroke-opacity="1" stroke-miterlimit="0"
    ><rect x="0" y="0" clip-path="url(#clipPath2)" fill="none" width="130" rx="10" ry="10" height="40"
    /></g
    ><g font-size="11" transform="translate(332,142)" fill-opacity="1" fill="rgb(122,207,245)" text-rendering="geometricPrecision" font-family="sans-serif" stroke="rgb(122,207,245)" stroke-opacity="1"
    ><rect x="0" y="0" clip-path="url(#clipPath2)" width="130" rx="10" ry="10" height="40" stroke="none"
    /></g
    ><g font-size="11" stroke-linecap="butt" transform="translate(332,142)" fill-opacity="1" fill="black" text-rendering="geometricPrecision" font-family="sans-serif" stroke-linejoin="round" stroke="black" stroke-opacity="1" stroke-miterlimit="0"
    ><rect x="0" y="0" clip-path="url(#clipPath2)" fill="none" width="130" rx="10" ry="10" height="40"
    /></g
    ><g font-size="11" transform="translate(172,532)" fill-opacity="1" fill="rgb(122,207,245)" text-rendering="geometricPrecision" font-family="sans-serif" stroke="rgb(122,207,245)" stroke-opacity="1"
    ><rect x="0" y="0" clip-path="url(#clipPath2)" width="130" rx="10" ry="10" height="40" stroke="none"
    /></g
    ><g font-size="11" stroke-linecap="butt" transform="translate(172,532)" fill-opacity="1" fill="black" text-rendering="geometricPrecision" font-family="sans-serif" stroke-linejoin="round" stroke="black" stroke-opacity="1" stroke-miterlimit="0"
    ><rect x="0" y="0" clip-path="url(#clipPath2)" fill="none" width="130" rx="10" ry="10" height="40"
    /></g
    ><g font-size="11" transform="translate(172,602)" fill-opacity="1" fill="rgb(122,207,245)" text-rendering="geometricPrecision" font-family="sans-serif" stroke="rgb(122,207,245)" stroke-opacity="1"
    ><rect x="0" y="0" clip-path="url(#clipPath2)" width="130" rx="10" ry="10" height="40" stroke="none"
    /></g
    ><g font-size="11" stroke-linecap="butt" transform="translate(172,602)" fill-opacity="1" fill="black" text-rendering="geometricPrecision" font-family="sans-serif" stroke-linejoin="round" stroke="black" stroke-opacity="1" stroke-miterlimit="0"
    ><rect x="0" y="0" clip-path="url(#clipPath2)" fill="none" width="130" rx="10" ry="10" height="40"
    /></g
    ><g font-size="11" transform="translate(492,372)" fill-opacity="1" fill="rgb(122,207,245)" text-rendering="geometricPrecision" font-family="sans-serif" stroke="rgb(122,207,245)" stroke-opacity="1"
    ><rect x="0" y="0" clip-path="url(#clipPath3)" width="170" rx="10" ry="10" height="40" stroke="none"
    /></g
    ><g font-size="11" stroke-linecap="butt" transform="translate(492,372)" fill-opacity="1" fill="black" text-rendering="geometricPrecision" font-family="sans-serif" stroke-linejoin="round" stroke="black" stroke-opacity="1" stroke-miterlimit="0"
    ><rect x="0" y="0" clip-path="url(#clipPath3)" fill="none" width="170" rx="10" ry="10" height="40"
    /></g
    ><g font-size="11" transform="translate(722,452)" fill-opacity="1" fill="rgb(122,207,245)" text-rendering="geometricPrecision" font-family="sans-serif" stroke="rgb(122,207,245)" stroke-opacity="1"
    ><rect x="0" y="0" clip-path="url(#clipPath4)" width="200" rx="10" ry="10" height="40" stroke="none"
    /></g
    ><g font-size="11" stroke-linecap="butt" transform="translate(722,452)" fill-opacity="1" fill="black" text-rendering="geometricPrecision" font-family="sans-serif" stroke-linejoin="round" stroke="black" stroke-opacity="1" stroke-miterlimit="0"
    ><rect x="0" y="0" clip-path="url(#clipPath4)" fill="none" width="200" rx="10" ry="10" height="40"
    /></g
    ><g font-size="11" transform="translate(552,462)" fill-opacity="1" fill="rgb(122,207,245)" text-rendering="geometricPrecision" font-family="sans-serif" stroke="rgb(122,207,245)" stroke-opacity="1"
    ><path d="M20 0 L39 10 L20 19 L0 10 Z" clip-path="url(#clipPath5)" stroke="none"
    /></g
    ><g font-size="11" stroke-linecap="butt" transform="translate(552,462)" fill-opacity="1" fill="black" text-rendering="geometricPrecision" font-family="sans-serif" stroke-linejoin="round" stroke="black" stroke-opacity="1" stroke-miterlimit="0"
    ><path fill="none" d="M20 0 L39 10 L20 19 L0 10 Z" clip-path="url(#clipPath5)"
    /></g
    ><g font-size="11" transform="translate(492,652)" fill-opacity="1" fill="rgb(122,207,245)" text-rendering="geometricPrecision" font-family="sans-serif" stroke="rgb(122,207,245)" stroke-opacity="1"
    ><rect x="0" y="0" clip-path="url(#clipPath3)" width="170" rx="10" ry="10" height="40" stroke="none"
    /></g
    ><g font-size="11" stroke-linecap="butt" transform="translate(492,652)" fill-opacity="1" fill="black" text-rendering="geometricPrecision" font-family="sans-serif" stroke-linejoin="round" stroke="black" stroke-opacity="1" stroke-miterlimit="0"
    ><rect x="0" y="0" clip-path="url(#clipPath3)" fill="none" width="170" rx="10" ry="10" height="40"
    /></g
    ><g font-size="11" transform="translate(492,732)" fill-opacity="1" fill="rgb(122,207,245)" text-rendering="geometricPrecision" font-family="sans-serif" stroke="rgb(122,207,245)" stroke-opacity="1"
    ><rect x="0" y="0" clip-path="url(#clipPath3)" width="170" rx="10" ry="10" height="40" stroke="none"
    /></g
    ><g font-size="11" stroke-linecap="butt" transform="translate(492,732)" fill-opacity="1" fill="black" text-rendering="geometricPrecision" font-family="sans-serif" stroke-linejoin="round" stroke="black" stroke-opacity="1" stroke-miterlimit="0"
    ><rect x="0" y="0" clip-path="url(#clipPath3)" fill="none" width="170" rx="10" ry="10" height="40"
    /></g
    ><g font-size="11" transform="translate(392,812)" fill-opacity="1" fill="black" text-rendering="geometricPrecision" font-family="sans-serif" stroke="black" stroke-opacity="1"
    ><circle r="7" clip-path="url(#clipPath1)" cx="10" cy="10" stroke="none"
      /><circle stroke-linecap="butt" clip-path="url(#clipPath1)" fill="none" stroke-linejoin="round" r="10" cx="10" cy="10" stroke-miterlimit="0"
    /></g
    ><g font-size="11" transform="translate(172,372)" fill-opacity="1" fill="rgb(122,207,245)" text-rendering="geometricPrecision" font-family="sans-serif" stroke="rgb(122,207,245)" stroke-opacity="1"
    ><rect x="0" y="0" clip-path="url(#clipPath2)" width="130" rx="10" ry="10" height="40" stroke="none"
    /></g
    ><g font-size="11" stroke-linecap="butt" transform="translate(172,372)" fill-opacity="1" fill="black" text-rendering="geometricPrecision" font-family="sans-serif" stroke-linejoin="round" stroke="black" stroke-opacity="1" stroke-miterlimit="0"
    ><rect x="0" y="0" clip-path="url(#clipPath2)" fill="none" width="130" rx="10" ry="10" height="40"
    /></g
    ><g font-size="11" transform="translate(222,462)" fill-opacity="1" fill="rgb(122,207,245)" text-rendering="geometricPrecision" font-family="sans-serif" stroke="rgb(122,207,245)" stroke-opacity="1"
    ><path d="M20 0 L39 10 L20 19 L0 10 Z" clip-path="url(#clipPath5)" stroke="none"
    /></g
    ><g font-size="11" stroke-linecap="butt" transform="translate(222,462)" fill-opacity="1" fill="black" text-rendering="geometricPrecision" font-family="sans-serif" stroke-linejoin="round" stroke="black" stroke-opacity="1" stroke-miterlimit="0"
    ><path fill="none" d="M20 0 L39 10 L20 19 L0 10 Z" clip-path="url(#clipPath5)"
    /></g
    ><g font-size="11" transform="translate(2,352)" fill-opacity="1" fill="rgb(122,207,245)" text-rendering="geometricPrecision" font-family="sans-serif" stroke="rgb(122,207,245)" stroke-opacity="1"
    ><rect x="0" y="0" clip-path="url(#clipPath6)" width="120" rx="10" ry="10" height="70" stroke="none"
    /></g
    ><g font-size="11" stroke-linecap="butt" transform="translate(2,352)" fill-opacity="1" fill="black" text-rendering="geometricPrecision" font-family="sans-serif" stroke-linejoin="round" stroke="black" stroke-opacity="1" stroke-miterlimit="0"
    ><rect x="0" y="0" clip-path="url(#clipPath6)" fill="none" width="120" rx="10" ry="10" height="70"
    /></g
    ><g font-size="11" transform="translate(702,592)" fill-opacity="1" fill="rgb(122,207,245)" text-rendering="geometricPrecision" font-family="sans-serif" stroke="rgb(122,207,245)" stroke-opacity="1"
    ><rect x="0" y="0" clip-path="url(#clipPath2)" width="130" rx="10" ry="10" height="40" stroke="none"
    /></g
    ><g font-size="11" stroke-linecap="butt" transform="translate(702,592)" fill-opacity="1" fill="black" text-rendering="geometricPrecision" font-family="sans-serif" stroke-linejoin="round" stroke="black" stroke-opacity="1" stroke-miterlimit="0"
    ><rect x="0" y="0" clip-path="url(#clipPath2)" fill="none" width="130" rx="10" ry="10" height="40"
    /></g
    ><g font-size="11" transform="translate(742,662)" fill-opacity="1" fill="rgb(122,207,245)" text-rendering="geometricPrecision" font-family="sans-serif" stroke="rgb(122,207,245)" stroke-opacity="1"
    ><path d="M20 0 L39 10 L20 19 L0 10 Z" clip-path="url(#clipPath5)" stroke="none"
    /></g
    ><g font-size="11" stroke-linecap="butt" transform="translate(742,662)" fill-opacity="1" fill="black" text-rendering="geometricPrecision" font-family="sans-serif" stroke-linejoin="round" stroke="black" stroke-opacity="1" stroke-miterlimit="0"
    ><path fill="none" d="M20 0 L39 10 L20 19 L0 10 Z" clip-path="url(#clipPath5)"
    /></g
    ><g font-size="11" transform="translate(492,532)" fill-opacity="1" fill="rgb(122,207,245)" text-rendering="geometricPrecision" font-family="sans-serif" stroke="rgb(122,207,245)" stroke-opacity="1"
    ><rect x="0" y="0" clip-path="url(#clipPath7)" width="140" rx="10" ry="10" height="40" stroke="none"
    /></g
    ><g font-size="11" stroke-linecap="butt" transform="translate(492,532)" fill-opacity="1" fill="black" text-rendering="geometricPrecision" font-family="sans-serif" stroke-linejoin="round" stroke="black" stroke-opacity="1" stroke-miterlimit="0"
    ><rect x="0" y="0" clip-path="url(#clipPath7)" fill="none" width="140" rx="10" ry="10" height="40"
    /></g
    ><g font-size="11" transform="translate(552,602)" fill-opacity="1" fill="rgb(122,207,245)" text-rendering="geometricPrecision" font-family="sans-serif" stroke="rgb(122,207,245)" stroke-opacity="1"
    ><path d="M20 0 L39 10 L20 19 L0 10 Z" clip-path="url(#clipPath5)" stroke="none"
    /></g
    ><g font-size="11" stroke-linecap="butt" transform="translate(552,602)" fill-opacity="1" fill="black" text-rendering="geometricPrecision" font-family="sans-serif" stroke-linejoin="round" stroke="black" stroke-opacity="1" stroke-miterlimit="0"
    ><path fill="none" d="M20 0 L39 10 L20 19 L0 10 Z" clip-path="url(#clipPath5)"
    /></g
    ><g font-size="11" transform="translate(382,302)" fill-opacity="1" fill="rgb(122,207,245)" text-rendering="geometricPrecision" font-family="sans-serif" stroke="rgb(122,207,245)" stroke-opacity="1"
    ><path d="M20 0 L39 10 L20 19 L0 10 Z" clip-path="url(#clipPath5)" stroke="none"
    /></g
    ><g font-size="11" stroke-linecap="butt" transform="translate(382,302)" fill-opacity="1" fill="black" text-rendering="geometricPrecision" font-family="sans-serif" stroke-linejoin="round" stroke="black" stroke-opacity="1" stroke-miterlimit="0"
    ><path fill="none" d="M20 0 L39 10 L20 19 L0 10 Z" clip-path="url(#clipPath5)"
    /></g
    ><g font-size="11" transform="translate(172,532)" fill-opacity="1" fill="black" text-rendering="geometricPrecision" font-family="sans-serif" stroke="black" stroke-opacity="1"
    ><text x="7" xml:space="preserve" y="18" clip-path="url(#clipPath8)" stroke="none"
      >Удалить "Муравья" с...</text
    ></g
    ><g font-size="11" transform="translate(492,532)" fill-opacity="1" fill="black" text-rendering="geometricPrecision" font-family="sans-serif" stroke="black" stroke-opacity="1"
    ><text x="10" xml:space="preserve" y="12" clip-path="url(#clipPath9)" stroke="none"
      >Проверить тип объекта</text
    ></g
    ><g font-size="11" transform="translate(702,592)" fill-opacity="1" fill="black" text-rendering="geometricPrecision" font-family="sans-serif" stroke="black" stroke-opacity="1"
    ><text x="9" xml:space="preserve" y="18" clip-path="url(#clipPath8)" stroke="none"
      >Проверить наличие...</text
    ></g
    ><g font-size="11" transform="translate(2,352)" fill-opacity="1" fill="black" text-rendering="geometricPrecision" font-family="sans-serif" stroke="black" stroke-opacity="1"
    ><text x="7" xml:space="preserve" y="17" clip-path="url(#clipPath10)" stroke="none"
      >Вывести сообщение</text
      ><text x="16" xml:space="preserve" y="32" clip-path="url(#clipPath10)" stroke="none"
      >о невозможности</text
      ><text x="27" xml:space="preserve" y="47" clip-path="url(#clipPath10)" stroke="none"
      >установить...</text
    ></g
    ><g font-size="11" transform="translate(172,372)" fill-opacity="1" fill="black" text-rendering="geometricPrecision" font-family="sans-serif" stroke="black" stroke-opacity="1"
    ><text x="5" xml:space="preserve" y="18" clip-path="url(#clipPath8)" stroke="none"
      >Проверить выбранну...</text
    ></g
    ><g font-size="11" transform="translate(492,732)" fill-opacity="1" fill="black" text-rendering="geometricPrecision" font-family="sans-serif" stroke="black" stroke-opacity="1"
    ><text x="10" xml:space="preserve" y="12" clip-path="url(#clipPath11)" stroke="none"
      >Обновить счётчики объектов</text
    ></g
    ><g font-size="11" transform="translate(492,652)" fill-opacity="1" fill="black" text-rendering="geometricPrecision" font-family="sans-serif" stroke="black" stroke-opacity="1"
    ><text x="5" xml:space="preserve" y="18" clip-path="url(#clipPath12)" stroke="none"
      >Добавить объект выбранного...</text
    ></g
    ><g font-size="11" transform="translate(722,452)" fill-opacity="1" fill="black" text-rendering="geometricPrecision" font-family="sans-serif" stroke="black" stroke-opacity="1"
    ><text x="33" xml:space="preserve" y="18" clip-path="url(#clipPath13)" stroke="none"
      >Вывести уведомление о...</text
    ></g
    ><g font-size="11" transform="translate(492,372)" fill-opacity="1" fill="black" text-rendering="geometricPrecision" font-family="sans-serif" stroke="black" stroke-opacity="1"
    ><text x="21" xml:space="preserve" y="18" clip-path="url(#clipPath12)" stroke="none"
      >Проверить количество...</text
    ></g
    ><g font-size="11" transform="translate(172,602)" fill-opacity="1" fill="black" text-rendering="geometricPrecision" font-family="sans-serif" stroke="black" stroke-opacity="1"
    ><text x="12" xml:space="preserve" y="12" clip-path="url(#clipPath14)" stroke="none"
      >Добавить "Муравья"</text
    ></g
    ><g font-size="11" transform="translate(332,142)" fill-opacity="1" fill="black" text-rendering="geometricPrecision" font-family="sans-serif" stroke="black" stroke-opacity="1"
    ><text x="7" xml:space="preserve" y="18" clip-path="url(#clipPath8)" stroke="none"
      >Выделить выбранны...</text
    ></g
    ><g font-size="11" transform="translate(332,222)" fill-opacity="1" fill="black" text-rendering="geometricPrecision" font-family="sans-serif" stroke="black" stroke-opacity="1"
    ><text x="11" xml:space="preserve" y="12" clip-path="url(#clipPath14)" stroke="none"
      >Выбрать клетку поля</text
    ></g
    ><g font-size="11" transform="translate(332,62)" fill-opacity="1" fill="black" text-rendering="geometricPrecision" font-family="sans-serif" stroke="black" stroke-opacity="1"
    ><text x="9" xml:space="preserve" y="12" clip-path="url(#clipPath14)" stroke="none"
      >Выбрать тип объекта</text
    ></g
    ><g font-size="11" stroke-linecap="butt" transform="translate(352,-30)" fill-opacity="1" fill="black" text-rendering="geometricPrecision" font-family="sans-serif" stroke-linejoin="round" stroke="black" stroke-opacity="1"
    ><line y2="91" fill="none" x1="50" clip-path="url(#clipPath15)" x2="50" y1="50"
      /><line y2="79" fill="none" x1="50" clip-path="url(#clipPath15)" x2="56" y1="91"
      /><line y2="79" fill="none" x1="50" clip-path="url(#clipPath15)" x2="44" y1="91"
    /></g
    ><g font-size="11" stroke-linecap="butt" transform="translate(352,52)" fill-opacity="1" fill="black" text-rendering="geometricPrecision" font-family="sans-serif" stroke-linejoin="round" stroke="black" stroke-opacity="1"
    ><line y2="89" fill="none" x1="50" clip-path="url(#clipPath16)" x2="50" y1="50"
      /><line y2="77" fill="none" x1="50" clip-path="url(#clipPath16)" x2="56" y1="89"
      /><line y2="77" fill="none" x1="50" clip-path="url(#clipPath16)" x2="44" y1="89"
    /></g
    ><g font-size="11" stroke-linecap="butt" transform="translate(352,132)" fill-opacity="1" fill="black" text-rendering="geometricPrecision" font-family="sans-serif" stroke-linejoin="round" stroke="black" stroke-opacity="1"
    ><line y2="89" fill="none" x1="50" clip-path="url(#clipPath16)" x2="50" y1="50"
      /><line y2="77" fill="none" x1="50" clip-path="url(#clipPath16)" x2="56" y1="89"
      /><line y2="77" fill="none" x1="50" clip-path="url(#clipPath16)" x2="44" y1="89"
    /></g
    ><g font-size="11" stroke-linecap="butt" transform="translate(522,362)" fill-opacity="1" fill="black" text-rendering="geometricPrecision" font-family="sans-serif" stroke-linejoin="round" stroke="black" stroke-opacity="1"
    ><line y2="101" fill="none" x1="50" clip-path="url(#clipPath17)" x2="50" y1="50"
      /><line y2="89" fill="none" x1="50" clip-path="url(#clipPath17)" x2="56" y1="101"
      /><line y2="89" fill="none" x1="50" clip-path="url(#clipPath17)" x2="44" y1="101"
    /></g
    ><g font-size="11" stroke-linecap="butt" transform="translate(540,422)" fill-opacity="1" fill="black" text-rendering="geometricPrecision" font-family="sans-serif" stroke-linejoin="round" stroke="black" stroke-opacity="1"
    ><line y2="50" fill="none" x1="50" clip-path="url(#clipPath18)" x2="181" y1="50"
      /><line y2="44" fill="none" x1="181" clip-path="url(#clipPath18)" x2="169" y1="50"
      /><line y2="56" fill="none" x1="181" clip-path="url(#clipPath18)" x2="169" y1="50"
    /></g
    ><g font-size="11" stroke-linecap="butt" transform="translate(522,430)" fill-opacity="1" fill="black" text-rendering="geometricPrecision" font-family="sans-serif" stroke-linejoin="round" stroke="black" stroke-opacity="1"
    ><line y2="101" fill="none" x1="50" clip-path="url(#clipPath17)" x2="50" y1="50"
      /><line y2="89" fill="none" x1="50" clip-path="url(#clipPath17)" x2="56" y1="101"
      /><line y2="89" fill="none" x1="50" clip-path="url(#clipPath17)" x2="44" y1="101"
    /></g
    ><g font-size="11" stroke-linecap="butt" transform="translate(522,642)" fill-opacity="1" fill="black" text-rendering="geometricPrecision" font-family="sans-serif" stroke-linejoin="round" stroke="black" stroke-opacity="1"
    ><line y2="89" fill="none" x1="50" clip-path="url(#clipPath16)" x2="50" y1="50"
      /><line y2="77" fill="none" x1="50" clip-path="url(#clipPath16)" x2="56" y1="89"
      /><line y2="77" fill="none" x1="50" clip-path="url(#clipPath16)" x2="44" y1="89"
    /></g
    ><g font-size="11" stroke-linecap="butt" transform="translate(412,32)" fill-opacity="1" fill="black" text-rendering="geometricPrecision" font-family="sans-serif" stroke-linejoin="round" stroke="black" stroke-opacity="1"
    ><line y2="50" fill="none" x1="410" clip-path="url(#clipPath19)" x2="410" y1="419"
      /><line y2="50" fill="none" x1="410" clip-path="url(#clipPath19)" x2="50" y1="50"
      /><line y2="56" fill="none" x1="50" clip-path="url(#clipPath19)" x2="62" y1="50"
      /><line y2="44" fill="none" x1="50" clip-path="url(#clipPath19)" x2="62" y1="50"
    /></g
    ><g font-size="11" stroke-linecap="butt" transform="translate(192,362)" fill-opacity="1" fill="black" text-rendering="geometricPrecision" font-family="sans-serif" stroke-linejoin="round" stroke="black" stroke-opacity="1"
    ><line y2="101" fill="none" x1="50" clip-path="url(#clipPath17)" x2="50" y1="50"
      /><line y2="89" fill="none" x1="50" clip-path="url(#clipPath17)" x2="56" y1="101"
      /><line y2="89" fill="none" x1="50" clip-path="url(#clipPath17)" x2="44" y1="101"
    /></g
    ><g font-size="11" stroke-linecap="butt" transform="translate(12,372)" fill-opacity="1" fill="black" text-rendering="geometricPrecision" font-family="sans-serif" stroke-linejoin="round" stroke="black" stroke-opacity="1"
    ><line y2="100" fill="none" x1="210" clip-path="url(#clipPath20)" x2="50" y1="100"
      /><line y2="50" fill="none" x1="50" clip-path="url(#clipPath20)" x2="50" y1="100"
      /><line y2="62" fill="none" x1="50" clip-path="url(#clipPath20)" x2="44" y1="50"
      /><line y2="62" fill="none" x1="50" clip-path="url(#clipPath20)" x2="56" y1="50"
    /></g
    ><g font-size="11" stroke-linecap="butt" transform="translate(12,32)" fill-opacity="1" fill="black" text-rendering="geometricPrecision" font-family="sans-serif" stroke-linejoin="round" stroke="black" stroke-opacity="1"
    ><line y2="50" fill="none" x1="50" clip-path="url(#clipPath21)" x2="50" y1="319"
      /><line y2="50" fill="none" x1="50" clip-path="url(#clipPath21)" x2="319" y1="50"
      /><line y2="44" fill="none" x1="319" clip-path="url(#clipPath21)" x2="307" y1="50"
      /><line y2="56" fill="none" x1="319" clip-path="url(#clipPath21)" x2="307" y1="50"
    /></g
    ><g font-size="11" stroke-linecap="butt" transform="translate(712,582)" fill-opacity="1" fill="black" text-rendering="geometricPrecision" font-family="sans-serif" stroke-linejoin="round" stroke="black" stroke-opacity="1"
    ><line y2="81" fill="none" x1="50" clip-path="url(#clipPath22)" x2="50" y1="50"
      /><line y2="69" fill="none" x1="50" clip-path="url(#clipPath22)" x2="56" y1="81"
      /><line y2="69" fill="none" x1="50" clip-path="url(#clipPath22)" x2="44" y1="81"
    /></g
    ><g font-size="11" stroke-linecap="butt" transform="translate(730,442)" fill-opacity="1" fill="black" text-rendering="geometricPrecision" font-family="sans-serif" stroke-linejoin="round" stroke="black" stroke-opacity="1"
    ><line y2="230" fill="none" x1="50" clip-path="url(#clipPath23)" x2="122" y1="230"
      /><line y2="50" fill="none" x1="122" clip-path="url(#clipPath23)" x2="122" y1="230"
      /><line y2="62" fill="none" x1="122" clip-path="url(#clipPath23)" x2="116" y1="50"
      /><line y2="62" fill="none" x1="122" clip-path="url(#clipPath23)" x2="128" y1="50"
    /></g
    ><g font-size="11" stroke-linecap="butt" transform="translate(612,622)" fill-opacity="1" fill="black" text-rendering="geometricPrecision" font-family="sans-serif" stroke-linejoin="round" stroke="black" stroke-opacity="1"
    ><line y2="50" fill="none" x1="130" clip-path="url(#clipPath24)" x2="50" y1="50"
      /><line y2="56" fill="none" x1="50" clip-path="url(#clipPath24)" x2="62" y1="50"
      /><line y2="44" fill="none" x1="50" clip-path="url(#clipPath24)" x2="62" y1="50"
    /></g
    ><g font-size="11" stroke-linecap="butt" transform="translate(522,522)" fill-opacity="1" fill="black" text-rendering="geometricPrecision" font-family="sans-serif" stroke-linejoin="round" stroke="black" stroke-opacity="1"
    ><line y2="81" fill="none" x1="50" clip-path="url(#clipPath22)" x2="50" y1="50"
      /><line y2="69" fill="none" x1="50" clip-path="url(#clipPath22)" x2="56" y1="81"
      /><line y2="69" fill="none" x1="50" clip-path="url(#clipPath22)" x2="44" y1="81"
    /></g
    ><g font-size="11" stroke-linecap="butt" transform="translate(540,562)" fill-opacity="1" fill="black" text-rendering="geometricPrecision" font-family="sans-serif" stroke-linejoin="round" stroke="black" stroke-opacity="1"
    ><line y2="50" fill="none" x1="50" clip-path="url(#clipPath25)" x2="161" y1="50"
      /><line y2="44" fill="none" x1="161" clip-path="url(#clipPath25)" x2="149" y1="50"
      /><line y2="56" fill="none" x1="161" clip-path="url(#clipPath25)" x2="149" y1="50"
    /></g
    ><g font-size="11" stroke-linecap="butt" transform="translate(522,570)" fill-opacity="1" fill="black" text-rendering="geometricPrecision" font-family="sans-serif" stroke-linejoin="round" stroke="black" stroke-opacity="1"
    ><line y2="81" fill="none" x1="50" clip-path="url(#clipPath22)" x2="50" y1="50"
      /><line y2="69" fill="none" x1="50" clip-path="url(#clipPath22)" x2="56" y1="81"
      /><line y2="69" fill="none" x1="50" clip-path="url(#clipPath22)" x2="44" y1="81"
    /></g
    ><g font-size="11" stroke-linecap="butt" transform="translate(192,430)" fill-opacity="1" fill="black" text-rendering="geometricPrecision" font-family="sans-serif" stroke-linejoin="round" stroke="black" stroke-opacity="1"
    ><line y2="101" fill="none" x1="50" clip-path="url(#clipPath17)" x2="50" y1="50"
      /><line y2="89" fill="none" x1="50" clip-path="url(#clipPath17)" x2="56" y1="101"
      /><line y2="89" fill="none" x1="50" clip-path="url(#clipPath17)" x2="44" y1="101"
    /></g
    ><g font-size="11" stroke-linecap="butt" transform="translate(192,522)" fill-opacity="1" fill="black" text-rendering="geometricPrecision" font-family="sans-serif" stroke-linejoin="round" stroke="black" stroke-opacity="1"
    ><line y2="79" fill="none" x1="50" clip-path="url(#clipPath26)" x2="50" y1="50"
      /><line y2="67" fill="none" x1="50" clip-path="url(#clipPath26)" x2="56" y1="79"
      /><line y2="67" fill="none" x1="50" clip-path="url(#clipPath26)" x2="44" y1="79"
    /></g
    ><g font-size="11" stroke-linecap="butt" transform="translate(192,266)" fill-opacity="1" fill="black" text-rendering="geometricPrecision" font-family="sans-serif" stroke-linejoin="round" stroke="black" stroke-opacity="1"
    ><line y2="106" fill="none" x1="200" clip-path="url(#clipPath27)" x2="50" y1="50"
      /><line y2="107" fill="none" x1="50" clip-path="url(#clipPath27)" x2="63" y1="106"
      /><line y2="96" fill="none" x1="50" clip-path="url(#clipPath27)" x2="59" y1="106"
    /></g
    ><g font-size="11" stroke-linecap="butt" transform="translate(363,266)" fill-opacity="1" fill="black" text-rendering="geometricPrecision" font-family="sans-serif" stroke-linejoin="round" stroke="black" stroke-opacity="1"
    ><line y2="106" fill="none" x1="50" clip-path="url(#clipPath28)" x2="209" y1="50"
      /><line y2="96" fill="none" x1="209" clip-path="url(#clipPath28)" x2="199" y1="106"
      /><line y2="107" fill="none" x1="209" clip-path="url(#clipPath28)" x2="195" y1="106"
    /></g
    ><g font-size="11" stroke-linecap="butt" transform="translate(352,212)" fill-opacity="1" fill="black" text-rendering="geometricPrecision" font-family="sans-serif" stroke-linejoin="round" stroke="black" stroke-opacity="1"
    ><line y2="91" fill="none" x1="50" clip-path="url(#clipPath15)" x2="50" y1="50"
      /><line y2="79" fill="none" x1="50" clip-path="url(#clipPath15)" x2="56" y1="91"
      /><line y2="79" fill="none" x1="50" clip-path="url(#clipPath15)" x2="44" y1="91"
    /></g
    ><g font-size="11" stroke-linecap="butt" transform="translate(192,592)" fill-opacity="1" fill="black" text-rendering="geometricPrecision" font-family="sans-serif" stroke-linejoin="round" stroke="black" stroke-opacity="1"
    ><line y2="230" fill="none" x1="50" clip-path="url(#clipPath29)" x2="50" y1="50"
      /><line y2="230" fill="none" x1="50" clip-path="url(#clipPath29)" x2="201" y1="230"
      /><line y2="224" fill="none" x1="201" clip-path="url(#clipPath29)" x2="189" y1="230"
      /><line y2="236" fill="none" x1="201" clip-path="url(#clipPath29)" x2="189" y1="230"
    /></g
    ><g font-size="11" stroke-linecap="butt" transform="translate(361,722)" fill-opacity="1" fill="black" text-rendering="geometricPrecision" font-family="sans-serif" stroke-linejoin="round" stroke="black" stroke-opacity="1"
    ><line y2="100" fill="none" x1="211" clip-path="url(#clipPath30)" x2="211" y1="50"
      /><line y2="100" fill="none" x1="211" clip-path="url(#clipPath30)" x2="50" y1="100"
      /><line y2="106" fill="none" x1="50" clip-path="url(#clipPath30)" x2="62" y1="100"
      /><line y2="94" fill="none" x1="50" clip-path="url(#clipPath30)" x2="62" y1="100"
    /></g
    ><g font-size="11" transform="translate(472,322)" fill-opacity="1" fill="black" text-rendering="geometricPrecision" font-family="sans-serif" stroke="black" stroke-opacity="1"
    ><text x="13" xml:space="preserve" y="12" clip-path="url(#clipPath31)" stroke="none"
      >Другой тип</text
    ></g
    ><g font-size="11" transform="translate(260,322)" fill-opacity="1" fill="black" text-rendering="geometricPrecision" font-family="sans-serif" stroke="black" stroke-opacity="1"
    ><text x="11" xml:space="preserve" y="12" clip-path="url(#clipPath32)" stroke="none"
      >"Муравей"</text
    ></g
    ><g font-size="11" transform="translate(242,498)" fill-opacity="1" fill="black" text-rendering="geometricPrecision" font-family="sans-serif" stroke="black" stroke-opacity="1"
    ><text x="13" xml:space="preserve" y="12" clip-path="url(#clipPath33)" stroke="none"
      >другой тип</text
    ></g
    ><g font-size="11" transform="translate(492,622)" fill-opacity="1" fill="black" text-rendering="geometricPrecision" font-family="sans-serif" stroke="black" stroke-opacity="1"
    ><text x="13" xml:space="preserve" y="12" clip-path="url(#clipPath33)" stroke="none"
      >другой тип</text
    ></g
    ><g font-size="11" transform="translate(582,582)" fill-opacity="1" fill="black" text-rendering="geometricPrecision" font-family="sans-serif" stroke="black" stroke-opacity="1"
    ><text x="14" xml:space="preserve" y="12" clip-path="url(#clipPath34)" stroke="none"
      >"Лунка" или "Камень"</text
    ></g
    ><g font-size="11" transform="translate(692,652)" fill-opacity="1" fill="black" text-rendering="geometricPrecision" font-family="sans-serif" stroke="black" stroke-opacity="1"
    ><text x="10" xml:space="preserve" y="12" clip-path="url(#clipPath35)" stroke="none"
      >нет</text
    ></g
    ><g font-size="11" transform="translate(792,652)" fill-opacity="1" fill="black" text-rendering="geometricPrecision" font-family="sans-serif" stroke="black" stroke-opacity="1"
    ><text x="10" xml:space="preserve" y="12" clip-path="url(#clipPath36)" stroke="none"
      >есть</text
    ></g
    ><g font-size="11" transform="translate(62,452)" fill-opacity="1" fill="black" text-rendering="geometricPrecision" font-family="sans-serif" stroke="black" stroke-opacity="1"
    ><text x="15" xml:space="preserve" y="12" clip-path="url(#clipPath37)" stroke="none"
      >тип "Лунка" или "Камень"</text
    ></g
    ><g font-size="11" transform="translate(479,492)" fill-opacity="1" fill="black" text-rendering="geometricPrecision" font-family="sans-serif" stroke="black" stroke-opacity="1"
    ><text x="14" xml:space="preserve" y="12" clip-path="url(#clipPath38)" stroke="none"
      >меньше максимального</text
    ></g
    ><g font-size="11" transform="translate(607,452)" fill-opacity="1" fill="black" text-rendering="geometricPrecision" font-family="sans-serif" stroke="black" stroke-opacity="1"
    ><text x="12" xml:space="preserve" y="12" clip-path="url(#clipPath39)" stroke="none"
      >максимально</text
    ></g
    ></g
></svg
>
