<?xml version="1.0" encoding="UTF-8"?>
<!DOCTYPE svg PUBLIC '-//W3C//DTD SVG 1.0//EN'
          'http://www.w3.org/TR/2001/REC-SVG-20010904/DTD/svg10.dtd'>
<svg fill-opacity="0" xmlns:xlink="http://www.w3.org/1999/xlink" color-rendering="auto" color-interpolation="auto" stroke="rgb(0,0,0)" text-rendering="auto" stroke-linecap="square" width="786" stroke-miterlimit="10" stroke-opacity="0" shape-rendering="auto" fill="rgb(0,0,0)" stroke-dasharray="none" font-weight="normal" stroke-width="1" height="766" xmlns="http://www.w3.org/2000/svg" font-family="&apos;Dialog&apos;" font-style="normal" stroke-linejoin="miter" font-size="12" stroke-dashoffset="0" image-rendering="auto"
><!--Generated by the Batik Graphics2D SVG Generator--><defs id="genericDefs"
  /><g
  ><defs id="defs1"
    ><clipPath clipPathUnits="userSpaceOnUse" id="clipPath1"
      ><path d="M-7 -7 L31 -7 L31 31 L-7 31 L-7 -7 Z"
      /></clipPath
      ><clipPath clipPathUnits="userSpaceOnUse" id="clipPath2"
      ><path d="M-7 -7 L151 -7 L151 51 L-7 51 L-7 -7 Z"
      /></clipPath
      ><clipPath clipPathUnits="userSpaceOnUse" id="clipPath3"
      ><path d="M-7 -7 L51 -7 L51 31 L-7 31 L-7 -7 Z"
      /></clipPath
      ><clipPath clipPathUnits="userSpaceOnUse" id="clipPath4"
      ><path d="M-7 -7 L131 -7 L131 51 L-7 51 L-7 -7 Z"
      /></clipPath
      ><clipPath clipPathUnits="userSpaceOnUse" id="clipPath5"
      ><path d="M-7 -7 L141 -7 L141 51 L-7 51 L-7 -7 Z"
      /></clipPath
      ><clipPath clipPathUnits="userSpaceOnUse" id="clipPath6"
      ><path d="M-130 -30 L260 -30 L260 60 L-130 60 L-130 -30 Z"
      /></clipPath
      ><clipPath clipPathUnits="userSpaceOnUse" id="clipPath7"
      ><path d="M-120 -30 L240 -30 L240 60 L-120 60 L-120 -30 Z"
      /></clipPath
      ><clipPath clipPathUnits="userSpaceOnUse" id="clipPath8"
      ><path d="M-120 -28 L240 -28 L240 56 L-120 56 L-120 -28 Z"
      /></clipPath
      ><clipPath clipPathUnits="userSpaceOnUse" id="clipPath9"
      ><path d="M-140 -30 L280 -30 L280 60 L-140 60 L-140 -30 Z"
      /></clipPath
      ><clipPath clipPathUnits="userSpaceOnUse" id="clipPath10"
      ><path d="M0 0 L104 0 L104 137 L0 137 L0 0 Z"
      /></clipPath
      ><clipPath clipPathUnits="userSpaceOnUse" id="clipPath11"
      ><path d="M0 0 L336 0 L336 133 L0 133 L0 0 Z"
      /></clipPath
      ><clipPath clipPathUnits="userSpaceOnUse" id="clipPath12"
      ><path d="M0 0 L336 0 L336 143 L0 143 L0 0 Z"
      /></clipPath
      ><clipPath clipPathUnits="userSpaceOnUse" id="clipPath13"
      ><path d="M0 0 L104 0 L104 197 L0 197 L0 0 Z"
      /></clipPath
      ><clipPath clipPathUnits="userSpaceOnUse" id="clipPath14"
      ><path d="M0 0 L254 0 L254 143 L0 143 L0 0 Z"
      /></clipPath
      ><clipPath clipPathUnits="userSpaceOnUse" id="clipPath15"
      ><path d="M0 0 L254 0 L254 133 L0 133 L0 0 Z"
      /></clipPath
      ><clipPath clipPathUnits="userSpaceOnUse" id="clipPath16"
      ><path d="M0 0 L245 0 L245 226 L0 226 L0 0 Z"
      /></clipPath
      ><clipPath clipPathUnits="userSpaceOnUse" id="clipPath17"
      ><path d="M0 0 L234 0 L234 143 L0 143 L0 0 Z"
      /></clipPath
      ><clipPath clipPathUnits="userSpaceOnUse" id="clipPath18"
      ><path d="M0 0 L104 0 L104 427 L0 427 L0 0 Z"
      /></clipPath
      ><clipPath clipPathUnits="userSpaceOnUse" id="clipPath19"
      ><path d="M0 0 L386 0 L386 155 L0 155 L0 0 Z"
      /></clipPath
      ><clipPath clipPathUnits="userSpaceOnUse" id="clipPath20"
      ><path d="M0 0 L276 0 L276 133 L0 133 L0 0 Z"
      /></clipPath
      ><clipPath clipPathUnits="userSpaceOnUse" id="clipPath21"
      ><path d="M0 0 L104 0 L104 187 L0 187 L0 0 Z"
      /></clipPath
      ><clipPath clipPathUnits="userSpaceOnUse" id="clipPath22"
      ><path d="M0 0 L264 0 L264 143 L0 143 L0 0 Z"
      /></clipPath
      ><clipPath clipPathUnits="userSpaceOnUse" id="clipPath23"
      ><path d="M0 0 L104 0 L104 207 L0 207 L0 0 Z"
      /></clipPath
      ><clipPath clipPathUnits="userSpaceOnUse" id="clipPath24"
      ><path d="M0 0 L386 0 L386 156 L0 156 L0 0 Z"
      /></clipPath
      ><clipPath clipPathUnits="userSpaceOnUse" id="clipPath25"
      ><path d="M0 0 L104 0 L104 145 L0 145 L0 0 Z"
      /></clipPath
      ><clipPath clipPathUnits="userSpaceOnUse" id="clipPath26"
      ><path d="M-140 -40 L280 -40 L280 80 L-140 80 L-140 -40 Z"
      /></clipPath
      ><clipPath clipPathUnits="userSpaceOnUse" id="clipPath27"
      ><path d="M-173 -14 L346 -14 L346 28 L-173 28 L-173 -14 Z"
      /></clipPath
      ><clipPath clipPathUnits="userSpaceOnUse" id="clipPath28"
      ><path d="M-141 -30 L282 -30 L282 60 L-141 60 L-141 -30 Z"
      /></clipPath
      ><clipPath clipPathUnits="userSpaceOnUse" id="clipPath29"
      ><path d="M-181 -14 L362 -14 L362 28 L-181 28 L-181 -14 Z"
      /></clipPath
      ><clipPath clipPathUnits="userSpaceOnUse" id="clipPath30"
      ><path d="M-185 -14 L370 -14 L370 28 L-185 28 L-185 -14 Z"
      /></clipPath
      ><clipPath clipPathUnits="userSpaceOnUse" id="clipPath31"
      ><path d="M-134 -14 L268 -14 L268 28 L-134 28 L-134 -14 Z"
      /></clipPath
      ><clipPath clipPathUnits="userSpaceOnUse" id="clipPath32"
      ><path d="M-121 -14 L242 -14 L242 28 L-121 28 L-121 -14 Z"
      /></clipPath
      ><clipPath clipPathUnits="userSpaceOnUse" id="clipPath33"
      ><path d="M-120 -40 L240 -40 L240 80 L-120 80 L-120 -40 Z"
      /></clipPath
      ><clipPath clipPathUnits="userSpaceOnUse" id="clipPath34"
      ><path d="M-110 -50 L220 -50 L220 100 L-110 100 L-110 -50 Z"
      /></clipPath
      ><clipPath clipPathUnits="userSpaceOnUse" id="clipPath35"
      ><path d="M-120 -50 L240 -50 L240 100 L-120 100 L-120 -50 Z"
      /></clipPath
    ></defs
    ><g fill="white" text-rendering="geometricPrecision" fill-opacity="1" stroke-opacity="1" stroke="white"
    ><rect x="0" width="786" height="766" y="0" stroke="none"
    /></g
    ><g font-size="11" transform="translate(222,2)" fill-opacity="1" fill="black" text-rendering="geometricPrecision" font-family="sans-serif" stroke="black" stroke-opacity="1"
    ><circle r="9.5" clip-path="url(#clipPath1)" cx="9.5" cy="9.5" stroke="none"
    /></g
    ><g font-size="11" transform="translate(412,102)" fill-opacity="1" fill="rgb(122,207,245)" text-rendering="geometricPrecision" font-family="sans-serif" stroke="rgb(122,207,245)" stroke-opacity="1"
    ><rect x="0" y="0" clip-path="url(#clipPath2)" width="140" rx="10" ry="10" height="40" stroke="none"
    /></g
    ><g font-size="11" stroke-linecap="butt" transform="translate(412,102)" fill-opacity="1" fill="black" text-rendering="geometricPrecision" font-family="sans-serif" stroke-linejoin="round" stroke="black" stroke-opacity="1" stroke-miterlimit="0"
    ><rect x="0" y="0" clip-path="url(#clipPath2)" fill="none" width="140" rx="10" ry="10" height="40"
    /></g
    ><g font-size="11" transform="translate(72,742)" fill-opacity="1" fill="black" text-rendering="geometricPrecision" font-family="sans-serif" stroke="black" stroke-opacity="1"
    ><circle r="7" clip-path="url(#clipPath1)" cx="10" cy="10" stroke="none"
      /><circle stroke-linecap="butt" clip-path="url(#clipPath1)" fill="none" stroke-linejoin="round" r="10" cx="10" cy="10" stroke-miterlimit="0"
    /></g
    ><g font-size="11" transform="translate(212,52)" fill-opacity="1" fill="rgb(122,207,245)" text-rendering="geometricPrecision" font-family="sans-serif" stroke="rgb(122,207,245)" stroke-opacity="1"
    ><path d="M20 0 L39 10 L20 19 L0 10 Z" clip-path="url(#clipPath3)" stroke="none"
    /></g
    ><g font-size="11" stroke-linecap="butt" transform="translate(212,52)" fill-opacity="1" fill="black" text-rendering="geometricPrecision" font-family="sans-serif" stroke-linejoin="round" stroke="black" stroke-opacity="1" stroke-miterlimit="0"
    ><path fill="none" d="M20 0 L39 10 L20 19 L0 10 Z" clip-path="url(#clipPath3)"
    /></g
    ><g font-size="11" transform="translate(212,162)" fill-opacity="1" fill="rgb(122,207,245)" text-rendering="geometricPrecision" font-family="sans-serif" stroke="rgb(122,207,245)" stroke-opacity="1"
    ><path d="M20 0 L39 10 L20 19 L0 10 Z" clip-path="url(#clipPath3)" stroke="none"
    /></g
    ><g font-size="11" stroke-linecap="butt" transform="translate(212,162)" fill-opacity="1" fill="black" text-rendering="geometricPrecision" font-family="sans-serif" stroke-linejoin="round" stroke="black" stroke-opacity="1" stroke-miterlimit="0"
    ><path fill="none" d="M20 0 L39 10 L20 19 L0 10 Z" clip-path="url(#clipPath3)"
    /></g
    ><g font-size="11" transform="translate(2,212)" fill-opacity="1" fill="rgb(122,207,245)" text-rendering="geometricPrecision" font-family="sans-serif" stroke="rgb(122,207,245)" stroke-opacity="1"
    ><rect x="0" y="0" clip-path="url(#clipPath2)" width="140" rx="10" ry="10" height="40" stroke="none"
    /></g
    ><g font-size="11" stroke-linecap="butt" transform="translate(2,212)" fill-opacity="1" fill="black" text-rendering="geometricPrecision" font-family="sans-serif" stroke-linejoin="round" stroke="black" stroke-opacity="1" stroke-miterlimit="0"
    ><rect x="0" y="0" clip-path="url(#clipPath2)" fill="none" width="140" rx="10" ry="10" height="40"
    /></g
    ><g font-size="11" transform="translate(212,272)" fill-opacity="1" fill="rgb(122,207,245)" text-rendering="geometricPrecision" font-family="sans-serif" stroke="rgb(122,207,245)" stroke-opacity="1"
    ><path d="M20 0 L39 10 L20 19 L0 10 Z" clip-path="url(#clipPath3)" stroke="none"
    /></g
    ><g font-size="11" stroke-linecap="butt" transform="translate(212,272)" fill-opacity="1" fill="black" text-rendering="geometricPrecision" font-family="sans-serif" stroke-linejoin="round" stroke="black" stroke-opacity="1" stroke-miterlimit="0"
    ><path fill="none" d="M20 0 L39 10 L20 19 L0 10 Z" clip-path="url(#clipPath3)"
    /></g
    ><g font-size="11" transform="translate(212,612)" fill-opacity="1" fill="rgb(122,207,245)" text-rendering="geometricPrecision" font-family="sans-serif" stroke="rgb(122,207,245)" stroke-opacity="1"
    ><path d="M20 0 L39 10 L20 19 L0 10 Z" clip-path="url(#clipPath3)" stroke="none"
    /></g
    ><g font-size="11" stroke-linecap="butt" transform="translate(212,612)" fill-opacity="1" fill="black" text-rendering="geometricPrecision" font-family="sans-serif" stroke-linejoin="round" stroke="black" stroke-opacity="1" stroke-miterlimit="0"
    ><path fill="none" d="M20 0 L39 10 L20 19 L0 10 Z" clip-path="url(#clipPath3)"
    /></g
    ><g font-size="11" transform="translate(22,662)" fill-opacity="1" fill="rgb(122,207,245)" text-rendering="geometricPrecision" font-family="sans-serif" stroke="rgb(122,207,245)" stroke-opacity="1"
    ><rect x="0" y="0" clip-path="url(#clipPath4)" width="120" rx="10" ry="10" height="40" stroke="none"
    /></g
    ><g font-size="11" stroke-linecap="butt" transform="translate(22,662)" fill-opacity="1" fill="black" text-rendering="geometricPrecision" font-family="sans-serif" stroke-linejoin="round" stroke="black" stroke-opacity="1" stroke-miterlimit="0"
    ><rect x="0" y="0" clip-path="url(#clipPath4)" fill="none" width="120" rx="10" ry="10" height="40"
    /></g
    ><g font-size="11" transform="translate(512,332)" fill-opacity="1" fill="rgb(122,207,245)" text-rendering="geometricPrecision" font-family="sans-serif" stroke="rgb(122,207,245)" stroke-opacity="1"
    ><path d="M20 0 L39 10 L20 19 L0 10 Z" clip-path="url(#clipPath3)" stroke="none"
    /></g
    ><g font-size="11" stroke-linecap="butt" transform="translate(512,332)" fill-opacity="1" fill="black" text-rendering="geometricPrecision" font-family="sans-serif" stroke-linejoin="round" stroke="black" stroke-opacity="1" stroke-miterlimit="0"
    ><path fill="none" d="M20 0 L39 10 L20 19 L0 10 Z" clip-path="url(#clipPath3)"
    /></g
    ><g font-size="11" transform="translate(512,432)" fill-opacity="1" fill="rgb(122,207,245)" text-rendering="geometricPrecision" font-family="sans-serif" stroke="rgb(122,207,245)" stroke-opacity="1"
    ><path d="M20 0 L39 10 L20 19 L0 10 Z" clip-path="url(#clipPath3)" stroke="none"
    /></g
    ><g font-size="11" stroke-linecap="butt" transform="translate(512,432)" fill-opacity="1" fill="black" text-rendering="geometricPrecision" font-family="sans-serif" stroke-linejoin="round" stroke="black" stroke-opacity="1" stroke-miterlimit="0"
    ><path fill="none" d="M20 0 L39 10 L20 19 L0 10 Z" clip-path="url(#clipPath3)"
    /></g
    ><g font-size="11" transform="translate(662,372)" fill-opacity="1" fill="rgb(122,207,245)" text-rendering="geometricPrecision" font-family="sans-serif" stroke="rgb(122,207,245)" stroke-opacity="1"
    ><rect x="0" y="0" clip-path="url(#clipPath4)" width="120" rx="10" ry="10" height="40" stroke="none"
    /></g
    ><g font-size="11" stroke-linecap="butt" transform="translate(662,372)" fill-opacity="1" fill="black" text-rendering="geometricPrecision" font-family="sans-serif" stroke-linejoin="round" stroke="black" stroke-opacity="1" stroke-miterlimit="0"
    ><rect x="0" y="0" clip-path="url(#clipPath4)" fill="none" width="120" rx="10" ry="10" height="40"
    /></g
    ><g font-size="11" transform="translate(512,552)" fill-opacity="1" fill="rgb(122,207,245)" text-rendering="geometricPrecision" font-family="sans-serif" stroke="rgb(122,207,245)" stroke-opacity="1"
    ><path d="M20 0 L39 10 L20 19 L0 10 Z" clip-path="url(#clipPath3)" stroke="none"
    /></g
    ><g font-size="11" stroke-linecap="butt" transform="translate(512,552)" fill-opacity="1" fill="black" text-rendering="geometricPrecision" font-family="sans-serif" stroke-linejoin="round" stroke="black" stroke-opacity="1" stroke-miterlimit="0"
    ><path fill="none" d="M20 0 L39 10 L20 19 L0 10 Z" clip-path="url(#clipPath3)"
    /></g
    ><g font-size="11" transform="translate(292,482)" fill-opacity="1" fill="rgb(122,207,245)" text-rendering="geometricPrecision" font-family="sans-serif" stroke="rgb(122,207,245)" stroke-opacity="1"
    ><rect x="0" y="0" clip-path="url(#clipPath5)" width="130" rx="10" ry="10" height="40" stroke="none"
    /></g
    ><g font-size="11" stroke-linecap="butt" transform="translate(292,482)" fill-opacity="1" fill="black" text-rendering="geometricPrecision" font-family="sans-serif" stroke-linejoin="round" stroke="black" stroke-opacity="1" stroke-miterlimit="0"
    ><rect x="0" y="0" clip-path="url(#clipPath5)" fill="none" width="130" rx="10" ry="10" height="40"
    /></g
    ><g font-size="11" transform="translate(292,482)" fill-opacity="1" fill="black" text-rendering="geometricPrecision" font-family="sans-serif" stroke="black" stroke-opacity="1"
    ><text x="9" xml:space="preserve" y="12" clip-path="url(#clipPath6)" stroke="none"
      >Изменить количество</text
      ><text x="50" xml:space="preserve" y="27" clip-path="url(#clipPath6)" stroke="none"
      >лунок</text
    ></g
    ><g font-size="11" transform="translate(662,372)" fill-opacity="1" fill="black" text-rendering="geometricPrecision" font-family="sans-serif" stroke="black" stroke-opacity="1"
    ><text x="34" xml:space="preserve" y="12" clip-path="url(#clipPath7)" stroke="none"
      >Изменить</text
      ><text x="10" xml:space="preserve" y="27" clip-path="url(#clipPath7)" stroke="none"
      >количество камней</text
    ></g
    ><g font-size="11" transform="translate(22,662)" fill-opacity="1" fill="black" text-rendering="geometricPrecision" font-family="sans-serif" stroke="black" stroke-opacity="1"
    ><text x="8" xml:space="preserve" y="18" clip-path="url(#clipPath8)" stroke="none"
      >Принять значения...</text
    ></g
    ><g font-size="11" transform="translate(2,212)" fill-opacity="1" fill="black" text-rendering="geometricPrecision" font-family="sans-serif" stroke="black" stroke-opacity="1"
    ><text x="10" xml:space="preserve" y="12" clip-path="url(#clipPath9)" stroke="none"
      >Изменить размер поля</text
      ><text x="30" xml:space="preserve" y="27" clip-path="url(#clipPath9)" stroke="none"
      >по горизонтали</text
    ></g
    ><g font-size="11" transform="translate(412,102)" fill-opacity="1" fill="black" text-rendering="geometricPrecision" font-family="sans-serif" stroke="black" stroke-opacity="1"
    ><text x="10" xml:space="preserve" y="12" clip-path="url(#clipPath9)" stroke="none"
      >Изменить размер поля</text
      ><text x="36" xml:space="preserve" y="27" clip-path="url(#clipPath9)" stroke="none"
      >по вертикали</text
    ></g
    ><g font-size="11" stroke-linecap="butt" transform="translate(182,-30)" fill-opacity="1" fill="black" text-rendering="geometricPrecision" font-family="sans-serif" stroke-linejoin="round" stroke="black" stroke-opacity="1"
    ><line y2="83" fill="none" x1="50" clip-path="url(#clipPath10)" x2="50" y1="50"
      /><line y2="71" fill="none" x1="50" clip-path="url(#clipPath10)" x2="56" y1="83"
      /><line y2="71" fill="none" x1="50" clip-path="url(#clipPath10)" x2="44" y1="83"
    /></g
    ><g font-size="11" stroke-linecap="butt" transform="translate(200,93)" fill-opacity="1" fill="black" text-rendering="geometricPrecision" font-family="sans-serif" stroke-linejoin="round" stroke="black" stroke-opacity="1"
    ><line y2="79" fill="none" x1="282" clip-path="url(#clipPath11)" x2="282" y1="50"
      /><line y2="79" fill="none" x1="282" clip-path="url(#clipPath11)" x2="50" y1="79"
      /><line y2="85" fill="none" x1="50" clip-path="url(#clipPath11)" x2="62" y1="79"
      /><line y2="73" fill="none" x1="50" clip-path="url(#clipPath11)" x2="62" y1="79"
    /></g
    ><g font-size="11" stroke-linecap="butt" transform="translate(200,12)" fill-opacity="1" fill="black" text-rendering="geometricPrecision" font-family="sans-serif" stroke-linejoin="round" stroke="black" stroke-opacity="1"
    ><line y2="50" fill="none" x1="50" clip-path="url(#clipPath12)" x2="282" y1="50"
      /><line y2="89" fill="none" x1="282" clip-path="url(#clipPath12)" x2="282" y1="50"
      /><line y2="77" fill="none" x1="282" clip-path="url(#clipPath12)" x2="288" y1="89"
      /><line y2="77" fill="none" x1="282" clip-path="url(#clipPath12)" x2="276" y1="89"
    /></g
    ><g font-size="11" stroke-linecap="butt" transform="translate(182,20)" fill-opacity="1" fill="black" text-rendering="geometricPrecision" font-family="sans-serif" stroke-linejoin="round" stroke="black" stroke-opacity="1"
    ><line y2="143" fill="none" x1="50" clip-path="url(#clipPath13)" x2="50" y1="50"
      /><line y2="131" fill="none" x1="50" clip-path="url(#clipPath13)" x2="56" y1="143"
      /><line y2="131" fill="none" x1="50" clip-path="url(#clipPath13)" x2="44" y1="143"
    /></g
    ><g font-size="11" stroke-linecap="butt" transform="translate(12,122)" fill-opacity="1" fill="black" text-rendering="geometricPrecision" font-family="sans-serif" stroke-linejoin="round" stroke="black" stroke-opacity="1"
    ><line y2="50" fill="none" x1="200" clip-path="url(#clipPath14)" x2="50" y1="50"
      /><line y2="89" fill="none" x1="50" clip-path="url(#clipPath14)" x2="50" y1="50"
      /><line y2="77" fill="none" x1="50" clip-path="url(#clipPath14)" x2="56" y1="89"
      /><line y2="77" fill="none" x1="50" clip-path="url(#clipPath14)" x2="44" y1="89"
    /></g
    ><g font-size="11" stroke-linecap="butt" transform="translate(182,130)" fill-opacity="1" fill="black" text-rendering="geometricPrecision" font-family="sans-serif" stroke-linejoin="round" stroke="black" stroke-opacity="1"
    ><line y2="143" fill="none" x1="50" clip-path="url(#clipPath13)" x2="50" y1="50"
      /><line y2="131" fill="none" x1="50" clip-path="url(#clipPath13)" x2="56" y1="143"
      /><line y2="131" fill="none" x1="50" clip-path="url(#clipPath13)" x2="44" y1="143"
    /></g
    ><g font-size="11" stroke-linecap="butt" transform="translate(12,203)" fill-opacity="1" fill="black" text-rendering="geometricPrecision" font-family="sans-serif" stroke-linejoin="round" stroke="black" stroke-opacity="1"
    ><line y2="79" fill="none" x1="50" clip-path="url(#clipPath15)" x2="50" y1="50"
      /><line y2="79" fill="none" x1="50" clip-path="url(#clipPath15)" x2="200" y1="79"
      /><line y2="73" fill="none" x1="200" clip-path="url(#clipPath15)" x2="188" y1="79"
      /><line y2="85" fill="none" x1="200" clip-path="url(#clipPath15)" x2="188" y1="79"
    /></g
    ><g font-size="11" stroke-linecap="butt" transform="translate(41,580)" fill-opacity="1" fill="black" text-rendering="geometricPrecision" font-family="sans-serif" stroke-linejoin="round" stroke="black" stroke-opacity="1"
    ><line y2="172" fill="none" x1="191" clip-path="url(#clipPath16)" x2="191" y1="50"
      /><line y2="172" fill="none" x1="191" clip-path="url(#clipPath16)" x2="50" y1="172"
      /><line y2="178" fill="none" x1="50" clip-path="url(#clipPath16)" x2="62" y1="172"
      /><line y2="166" fill="none" x1="50" clip-path="url(#clipPath16)" x2="62" y1="172"
    /></g
    ><g font-size="11" stroke-linecap="butt" transform="translate(32,572)" fill-opacity="1" fill="black" text-rendering="geometricPrecision" font-family="sans-serif" stroke-linejoin="round" stroke="black" stroke-opacity="1"
    ><line y2="50" fill="none" x1="180" clip-path="url(#clipPath17)" x2="50" y1="50"
      /><line y2="89" fill="none" x1="50" clip-path="url(#clipPath17)" x2="50" y1="50"
      /><line y2="77" fill="none" x1="50" clip-path="url(#clipPath17)" x2="56" y1="89"
      /><line y2="77" fill="none" x1="50" clip-path="url(#clipPath17)" x2="44" y1="89"
    /></g
    ><g font-size="11" stroke-linecap="butt" transform="translate(182,240)" fill-opacity="1" fill="black" text-rendering="geometricPrecision" font-family="sans-serif" stroke-linejoin="round" stroke="black" stroke-opacity="1"
    ><line y2="373" fill="none" x1="50" clip-path="url(#clipPath18)" x2="50" y1="50"
      /><line y2="361" fill="none" x1="50" clip-path="url(#clipPath18)" x2="56" y1="373"
      /><line y2="361" fill="none" x1="50" clip-path="url(#clipPath18)" x2="44" y1="373"
    /></g
    ><g font-size="11" stroke-linecap="butt" transform="translate(200,232)" fill-opacity="1" fill="black" text-rendering="geometricPrecision" font-family="sans-serif" stroke-linejoin="round" stroke="black" stroke-opacity="1"
    ><line y2="50" fill="none" x1="50" clip-path="url(#clipPath19)" x2="332" y1="50"
      /><line y2="101" fill="none" x1="332" clip-path="url(#clipPath19)" x2="332" y1="50"
      /><line y2="89" fill="none" x1="332" clip-path="url(#clipPath19)" x2="338" y1="101"
      /><line y2="89" fill="none" x1="332" clip-path="url(#clipPath19)" x2="326" y1="101"
    /></g
    ><g font-size="11" stroke-linecap="butt" transform="translate(500,292)" fill-opacity="1" fill="black" text-rendering="geometricPrecision" font-family="sans-serif" stroke-linejoin="round" stroke="black" stroke-opacity="1"
    ><line y2="50" fill="none" x1="50" clip-path="url(#clipPath20)" x2="222" y1="50"
      /><line y2="79" fill="none" x1="222" clip-path="url(#clipPath20)" x2="222" y1="50"
      /><line y2="67" fill="none" x1="222" clip-path="url(#clipPath20)" x2="228" y1="79"
      /><line y2="67" fill="none" x1="222" clip-path="url(#clipPath20)" x2="216" y1="79"
    /></g
    ><g font-size="11" stroke-linecap="butt" transform="translate(482,300)" fill-opacity="1" fill="black" text-rendering="geometricPrecision" font-family="sans-serif" stroke-linejoin="round" stroke="black" stroke-opacity="1"
    ><line y2="133" fill="none" x1="50" clip-path="url(#clipPath21)" x2="50" y1="50"
      /><line y2="121" fill="none" x1="50" clip-path="url(#clipPath21)" x2="56" y1="133"
      /><line y2="121" fill="none" x1="50" clip-path="url(#clipPath21)" x2="44" y1="133"
    /></g
    ><g font-size="11" stroke-linecap="butt" transform="translate(500,363)" fill-opacity="1" fill="black" text-rendering="geometricPrecision" font-family="sans-serif" stroke-linejoin="round" stroke="black" stroke-opacity="1"
    ><line y2="79" fill="none" x1="222" clip-path="url(#clipPath20)" x2="222" y1="50"
      /><line y2="79" fill="none" x1="222" clip-path="url(#clipPath20)" x2="50" y1="79"
      /><line y2="85" fill="none" x1="50" clip-path="url(#clipPath20)" x2="62" y1="79"
      /><line y2="73" fill="none" x1="50" clip-path="url(#clipPath20)" x2="62" y1="79"
    /></g
    ><g font-size="11" stroke-linecap="butt" transform="translate(302,392)" fill-opacity="1" fill="black" text-rendering="geometricPrecision" font-family="sans-serif" stroke-linejoin="round" stroke="black" stroke-opacity="1"
    ><line y2="50" fill="none" x1="210" clip-path="url(#clipPath22)" x2="50" y1="50"
      /><line y2="89" fill="none" x1="50" clip-path="url(#clipPath22)" x2="50" y1="50"
      /><line y2="77" fill="none" x1="50" clip-path="url(#clipPath22)" x2="56" y1="89"
      /><line y2="77" fill="none" x1="50" clip-path="url(#clipPath22)" x2="44" y1="89"
    /></g
    ><g font-size="11" stroke-linecap="butt" transform="translate(482,400)" fill-opacity="1" fill="black" text-rendering="geometricPrecision" font-family="sans-serif" stroke-linejoin="round" stroke="black" stroke-opacity="1"
    ><line y2="153" fill="none" x1="50" clip-path="url(#clipPath23)" x2="50" y1="50"
      /><line y2="141" fill="none" x1="50" clip-path="url(#clipPath23)" x2="56" y1="153"
      /><line y2="141" fill="none" x1="50" clip-path="url(#clipPath23)" x2="44" y1="153"
    /></g
    ><g font-size="11" stroke-linecap="butt" transform="translate(302,473)" fill-opacity="1" fill="black" text-rendering="geometricPrecision" font-family="sans-serif" stroke-linejoin="round" stroke="black" stroke-opacity="1"
    ><line y2="89" fill="none" x1="50" clip-path="url(#clipPath22)" x2="50" y1="50"
      /><line y2="89" fill="none" x1="50" clip-path="url(#clipPath22)" x2="210" y1="89"
      /><line y2="83" fill="none" x1="210" clip-path="url(#clipPath22)" x2="198" y1="89"
      /><line y2="95" fill="none" x1="210" clip-path="url(#clipPath22)" x2="198" y1="89"
    /></g
    ><g font-size="11" stroke-linecap="butt" transform="translate(200,520)" fill-opacity="1" fill="black" text-rendering="geometricPrecision" font-family="sans-serif" stroke-linejoin="round" stroke="black" stroke-opacity="1"
    ><line y2="102" fill="none" x1="332" clip-path="url(#clipPath24)" x2="332" y1="50"
      /><line y2="102" fill="none" x1="332" clip-path="url(#clipPath24)" x2="50" y1="102"
      /><line y2="108" fill="none" x1="50" clip-path="url(#clipPath24)" x2="62" y1="102"
      /><line y2="96" fill="none" x1="50" clip-path="url(#clipPath24)" x2="62" y1="102"
    /></g
    ><g font-size="11" stroke-linecap="butt" transform="translate(32,652)" fill-opacity="1" fill="black" text-rendering="geometricPrecision" font-family="sans-serif" stroke-linejoin="round" stroke="black" stroke-opacity="1"
    ><line y2="91" fill="none" x1="50" clip-path="url(#clipPath25)" x2="50" y1="50"
      /><line y2="79" fill="none" x1="50" clip-path="url(#clipPath25)" x2="56" y1="91"
      /><line y2="79" fill="none" x1="50" clip-path="url(#clipPath25)" x2="44" y1="91"
    /></g
    ><g font-size="11" transform="translate(532,482)" fill-opacity="1" fill="black" text-rendering="geometricPrecision" font-family="sans-serif" stroke="black" stroke-opacity="1"
    ><text x="16" xml:space="preserve" y="17" clip-path="url(#clipPath26)" stroke="none"
      >Принять количество</text
      ><text x="16" xml:space="preserve" y="32" clip-path="url(#clipPath26)" stroke="none"
      >лунок по умолчанию</text
    ></g
    ><g font-size="11" transform="translate(332,422)" fill-opacity="1" fill="black" text-rendering="geometricPrecision" font-family="sans-serif" stroke="black" stroke-opacity="1"
    ><text x="15" xml:space="preserve" y="12" clip-path="url(#clipPath27)" stroke="none"
      >Изменить количество лунок</text
    ></g
    ><g font-size="11" transform="translate(396,377)" fill-opacity="1" fill="black" text-rendering="geometricPrecision" font-family="sans-serif" stroke="black" stroke-opacity="1"
    ><text x="12" xml:space="preserve" y="12" clip-path="url(#clipPath28)" stroke="none"
      >Принять количество</text
      ><text x="12" xml:space="preserve" y="27" clip-path="url(#clipPath28)" stroke="none"
      >камней по умолчанию</text
    ></g
    ><g font-size="11" transform="translate(562,322)" fill-opacity="1" fill="black" text-rendering="geometricPrecision" font-family="sans-serif" stroke="black" stroke-opacity="1"
    ><text x="15" xml:space="preserve" y="12" clip-path="url(#clipPath29)" stroke="none"
      >Изменить количество камней</text
    ></g
    ><g font-size="11" transform="translate(305,262)" fill-opacity="1" fill="black" text-rendering="geometricPrecision" font-family="sans-serif" stroke="black" stroke-opacity="1"
    ><text x="15" xml:space="preserve" y="12" clip-path="url(#clipPath30)" stroke="none"
      >"Автоматическое заполнение"</text
    ></g
    ><g font-size="11" transform="translate(102,442)" fill-opacity="1" fill="black" text-rendering="geometricPrecision" font-family="sans-serif" stroke="black" stroke-opacity="1"
    ><text x="13" xml:space="preserve" y="12" clip-path="url(#clipPath31)" stroke="none"
      >"Ручное заполнение"</text
    ></g
    ><g font-size="11" transform="translate(82,602)" fill-opacity="1" fill="black" text-rendering="geometricPrecision" font-family="sans-serif" stroke="black" stroke-opacity="1"
    ><text x="13" xml:space="preserve" y="12" clip-path="url(#clipPath32)" stroke="none"
      >Нажата кнопка ОК</text
    ></g
    ><g font-size="11" transform="translate(222,682)" fill-opacity="1" fill="black" text-rendering="geometricPrecision" font-family="sans-serif" stroke="black" stroke-opacity="1"
    ><text x="22" xml:space="preserve" y="17" clip-path="url(#clipPath33)" stroke="none"
      >Нажата кнопка</text
      ><text x="22" xml:space="preserve" y="32" clip-path="url(#clipPath33)" stroke="none"
      >Отмена</text
    ></g
    ><g font-size="11" transform="translate(232,202)" fill-opacity="1" fill="black" text-rendering="geometricPrecision" font-family="sans-serif" stroke="black" stroke-opacity="1"
    ><text x="6" xml:space="preserve" y="22" clip-path="url(#clipPath34)" stroke="none"
      >Принять размер по</text
      ><text x="6" xml:space="preserve" y="37" clip-path="url(#clipPath34)" stroke="none"
      >умолчанию</text
    ></g
    ><g font-size="11" transform="translate(72,132)" fill-opacity="1" fill="black" text-rendering="geometricPrecision" font-family="sans-serif" stroke="black" stroke-opacity="1"
    ><text x="10" xml:space="preserve" y="22" clip-path="url(#clipPath34)" stroke="none"
      >Изменить размер</text
      ><text x="10" xml:space="preserve" y="37" clip-path="url(#clipPath34)" stroke="none"
      >по горизонтали</text
    ></g
    ><g font-size="11" transform="translate(122,72)" fill-opacity="1" fill="black" text-rendering="geometricPrecision" font-family="sans-serif" stroke="black" stroke-opacity="1"
    ><text x="6" xml:space="preserve" y="22" clip-path="url(#clipPath34)" stroke="none"
      >Принять размер по</text
      ><text x="6" xml:space="preserve" y="37" clip-path="url(#clipPath34)" stroke="none"
      >умолчанию</text
    ></g
    ><g font-size="11" transform="translate(362,22)" fill-opacity="1" fill="black" text-rendering="geometricPrecision" font-family="sans-serif" stroke="black" stroke-opacity="1"
    ><text x="7" xml:space="preserve" y="22" clip-path="url(#clipPath35)" stroke="none"
      >Изменить размер по</text
      ><text x="7" xml:space="preserve" y="37" clip-path="url(#clipPath35)" stroke="none"
      >вертикали</text
    ></g
    ></g
></svg
>
